"Time"	"FSC.A"	"FSC.H"	"SSC.A"	"ERK"	"STAT1"	"CD4"	"CD3"	"STAT3"	"CD45"	"cluster"
1.65195671091346	55028.3984375	52746.5	31520.30078125	0.0362393269169781	0.074698238074181	0.0013154368527082	0.00914632903181989	0.127922944219510	-0.008031860358747	2
1.62504314141365	152496.585500372	126435.023809524	151140.38187314	0.28801465645148	0.427647810325343	0.190365455783617	0.823492712397163	0.752911179559423	0.784076545004528	4
1.61704362321283	50128.4384753279	47069.6396965866	22737.5433928325	0.0548054020850889	0.0692582018973192	0.0599033990311274	0.189369470882801	0.105591174848807	0.109141755416889	5
1.63672386570166	83387.2103451588	67691.2459016393	41448.4900662782	0.18471481771334	0.235903634098536	0.162274331311577	1.12956907062413	0.457650693100928	1.41848865935287	6
