"Stimulus"	"Panel2_STAT5"	"Panel2_STAT1"	"Panel2_STAT3"	"Panel1_ERK"	"Panel1_STAT1"	"Panel1_STAT3"
"GM-CSF"	"411.327514711706"	"755.192285850468"	"643.982737214459"	NA	NA	NA
"IFNa,IL-2,IL-10"	NA	NA	NA	"1500.07266247162"	"3389.30873822947"	"11133.3224930353"
"IFNa,IL-4,IL-6 "	NA	NA	NA	"526.365179552506"	"3474.39685222783"	"3184.56168106095"
