"Time"	"FSC-A"	"FSC-H"	"SSC-A"	"STAT5"	"STAT1"	"CD4"	"CD25"	"STAT3"	"CD45"	"cluster"
22155.2278355885	67357.4556939821	37256.0482115086	246353.737190781	4468.93381195528	11978.2191236163	4477.03550060863	2243.2510642708	1630.75229525496	135.277295153427	1
21534.8753649243	162476.811473524	135957.259004893	169913.994813160	511.119471600208	512.091249618007	226.299266081079	572.715915247868	1142.58019819925	986.382777737657	2
22032.3105727064	191109.759711676	126280.871722846	180844.579690426	644.491174496562	616.435833674176	295.859826023706	744.238676189445	1354.62371431056	1793.59647960673	6
20685.2782200501	157168.421610106	121427.415950334	262141.780130731	2637.09222514476	2279.02289217444	1224.49815511923	4668.90996292466	6760.96327797964	2514.67252790315	7
21167.9532226563	50385.27109375	42546.1333333333	239702.565625	101.596468694666	95.033137740279	41.1698475277786	182.080926086277	550.597714799366	-7.42796603267371	11
21689.2778243241	144294.679384346	113739.997611465	92251.4529534018	654.935781401596	747.522953992664	235.315112719541	963.790269716314	2080.57727160328	7018.98205266621	12
