"Event"	"FSC.H"	"SSC.H"	"FL1.H"	"FL2.H"	"FL3.H"	"FL1.A"	"FL1.W"	"Time"
1	309	376	264	198	313	0	0	2
2	83	55	139	51	146	0	0	2
3	184	198	232	83	124	0	0	2
4	169	75	696	22	193	121	26	2
5	212	98	166	0	221	0	0	2
6	164	143	108	160	117	0	0	2
7	525	628	581	250	50	39	0	2
8	80	41	84	0	190	0	0	2
9	369	306	405	106	199	2	0	2
10	152	129	113	83	54	0	0	2
