"FSC-H"	"SSC-H"	"id"
0	0.782013685239492	2
0	0	2
0.359726295210166	0	2
0.0234604105571848	0	2
0	0.746823069403715	2
0.172043010752688	0.719452590420332	2
0	0	2
0.250244379276637	0.895405669599218	2
1.9941348973607	1.78690127077224	4
2.40469208211144	0.0821114369501466	2
0	0.387096774193548	2
0.531769305962854	0.598240469208211	3
0	0	2
0	0	2
2.35777126099707	0.132942326490714	4
0	0.782013685239492	2
0	0	2
2.33822091886608	1.25513196480938	1
1.65395894428153	1.39980449657869	3
2.34213098729228	0	1
0.183773216031281	0.207233626588465	2
0.0351906158357772	0.789833822091887	2
0	1.02052785923754	2
0	0.23069403714565	2
0	0	2
0	0.465298142717498	2
2.32258064516129	0.809384164222874	1
0	0.418377321603128	2
0.566959921798632	0.578690127077224	2
2.43206256109482	0	1
1.02443792766373	0.0703812316715542	2
0.742913000977517	0	2
0	0.703812316715543	2
0	0	2
0.402737047898338	0.719452590420332	2
2.36950146627566	2.38905180840665	4
2.49853372434018	3.16324535679374	4
0.27761485826002	0	2
0	0.304985337243402	2
2.3069403714565	0.825024437927664	1
2.20136852394917	0.852394916911046	1
0	0.207233626588465	2
0.590420332355816	0	2
0.285434995112414	0.637341153470186	2
0.00391006842619744	0.281524926686217	2
0.617790811339198	0	2
0	0	2
1.41153470185728	2.03714565004888	3
2.42033235581623	0.883675464320626	1
0.117302052785924	0	2
0.87585532746823	0.211143695014663	2
0	0.625610948191593	2
0.0977517106549365	0	2
0.49266862170088	0.156402737047898	2
2.56500488758553	3.12023460410557	4
0.242424242424242	0.731182795698925	2
0.715542521994135	0.695992179863148	2
0.87585532746823	0	2
0.109481915933529	0.359726295210166	2
2.27174975562072	0.140762463343108	1
0.649071358748778	0.113391984359726	2
0.285434995112414	0.0742913000977517	2
0.809384164222874	0.586510263929619	2
2.4594330400782	0.711632453567937	1
0.379276637341153	0.762463343108504	2
0.547409579667644	0	2
0.363636363636364	0	2
0.520039100684262	0.44574780058651	2
4	3.96089931573803	3
0	0	2
0.172043010752688	0.144672531769306	2
0	0.406647116324536	2
0	1.43499511241447	3
0	0.125122189638319	2
0.0547409579667644	0	2
0	0.0547409579667644	2
0.559139784946237	0.363636363636364	2
2.20918866080156	0.0625610948191593	1
0	0	2
0.649071358748778	0.304985337243402	2
0	0	2
0	0.187683284457478	2
0.297165200391007	0.559139784946237	2
0.496578690127077	0	2
0.0664711632453568	0.793743890518084	2
0.0547409579667644	0.774193548387097	2
0	0.95405669599218	2
0	0.336265884652981	2
2.38514173998045	0.809384164222874	1
0	0.426197458455523	2
0.418377321603128	0.121212121212121	2
0.688172043010753	0.637341153470186	2
2.37732160312805	2.06842619745846	4
0	0	2
0.273704789833822	0	2
0	0.90713587487781	2
0	0.930596285434995	2
0.152492668621701	0	2
0	0.496578690127077	2
0.0547409579667644	0.340175953079179	2
0.656891495601173	0	2
0.652981427174976	0	2
2.49071358748778	0	1
0.0117302052785923	0	2
0.301075268817204	0.449657869012708	2
0.805474095796676	0	2
0.387096774193548	0	2
0.805474095796676	0	2
0.258064516129032	0	2
0	0.926686217008798	2
0	0.211143695014663	2
0.520039100684262	0	2
0	0.832844574780059	2
0.347996089931574	0	2
0.566959921798632	0	2
0	0	2
0.242424242424242	0.320625610948192	2
0	0.265884652981427	2
0.24633431085044	0.484848484848485	2
0	0	2
0	0.00391006842619744	2
0.340175953079179	0.641251221896383	2
0	0.606060606060606	2
0.0782013685239492	0.70772238514174	2
0	0.500488758553275	2
2.34213098729228	0.465298142717498	1
1.32160312805474	3.82404692082111	3
0.304985337243402	1.33333333333333	3
0.27761485826002	0	2
0	0.582600195503421	2
0.574780058651026	0	2
2.18572825024438	0.418377321603128	1
0.265884652981427	0.641251221896383	2
0.0078201368523949	0.993157380254154	2
0	0.695992179863148	2
0	0	2
0	0.0782013685239492	2
4	3.98826979472141	3
0.0782013685239492	0.641251221896383	2
0	0.652981427174976	2
0.0899315738025415	0.480938416422287	2
0	0.406647116324536	2
0.457478005865103	0	2
0	0.218963831867058	2
0.0273704789833822	0.668621700879765	2
0.817204301075269	0.27761485826002	2
2.55327468230694	0.226783968719453	1
0.825024437927664	0	2
1.2238514173998	1.96676441837732	3
2.04105571847507	0.637341153470186	1
0.449657869012708	0.402737047898338	2
0	0.0156402737047898	2
0.144672531769306	0	2
2.01368523949169	0.70772238514174	1
0.0782013685239492	0.148582600195503	2
0.269794721407625	0.144672531769306	2
0.453567937438905	0.805474095796676	2
2.33040078201369	0.989247311827957	1
0	0	2
0	0.218963831867058	2
0.993157380254154	0.699902248289345	2
0.113391984359726	0	2
0	0	2
2.64711632453568	3.2258064516129	4
0	0	2
0	0.49266862170088	2
2.54154447702835	3.9960899315738	3
0	0	2
0.434017595307918	0.211143695014663	2
0.24633431085044	0	2
2.54936461388074	2.90909090909091	4
0.664711632453568	2.08015640273705	3
2.33040078201369	3.49951124144673	4
0	0	2
0	0.821114369501466	2
2.39296187683284	0.566959921798632	1
2.3030303030303	0.871945259042033	1
0	0.160312805474096	2
0.0625610948191593	0.164222873900293	2
0.559139784946237	0.418377321603128	2
0	0	2
0	0.64516129032258	2
0.527859237536657	0.844574780058651	2
2.26783968719453	0.789833822091887	1
0.218963831867058	0.742913000977517	2
0.641251221896383	0	2
0	0	2
0.406647116324536	0.0156402737047898	2
0.75464320625611	0	2
2.51026392961877	0.828934506353861	1
0.758553274682307	0.172043010752688	2
0.093841642228739	0.234604105571848	2
0.144672531769306	0.105571847507331	2
0.680351906158358	0	2
0.0899315738025415	1.25513196480938	3
0.179863147605083	0.0391006842619746	2
2.40469208211144	1.00488758553275	1
0.49266862170088	0	2
2.22091886608016	0.453567937438905	1
0	0.563049853372434	2
0	0.50830889540567	2
0	0	2
2.04496578690127	1.88074291300098	4
0.90713587487781	0	2
0	0	2
2.48289345063539	3.19452590420332	4
0.7702834799609	0	2
2.43206256109482	0.934506353861193	1
0	0.26197458455523	2
0	0.711632453567937	2
0	0.371456500488759	2
0.168132942326491	0.297165200391007	2
0	1.00097751710655	2
0.47702834799609	0.598240469208211	2
0.437927663734115	0	2
2.36168132942327	0.0469208211143695	1
2.48680351906158	2.9286412512219	4
0.24633431085044	0	2
2.39687194525904	0.594330400782014	1
1.544477028348	1.33333333333333	3
4	3.87487781036168	3
0.273704789833822	0.371456500488759	2
2.27565982404692	1.09481915933529	1
0.187683284457478	0.0117302052785923	2
2.56891495601173	3.15933528836755	4
0.441837732160313	0	2
0.555229716520039	0.156402737047898	2
0	0	2
0.43010752688172	0	2
0	1.41153470185728	3
4	3.88660801564027	3
0.113391984359726	0.67644183773216	2
2.58455522971652	3.45259042033236	4
0.89149560117302	0.453567937438905	2
0	0.50830889540567	2
0	0.73900293255132	2
1.64613880742913	2.52199413489736	3
0	0	2
0	0.64516129032258	2
0.0391006842619746	0	2
0.359726295210166	0.254154447702835	2
2.0058651026393	1.5366568914956	4
0	0	2
0.0899315738025415	0.539589442815249	2
0.328445747800586	0.105571847507331	2
2.38905180840665	0.903225806451613	1
0.469208211143695	0.109481915933529	2
0.946236559139785	0.340175953079179	2
1.43108504398827	1.63049853372434	3
0	0	2
0.289345063538612	0.340175953079179	2
0.24633431085044	0	2
2.23264907135875	1.09872922776149	1
0	0.543499511241447	2
2.90909090909091	1.36461388074291	1
2.72140762463343	4	3
0.809384164222874	0.211143695014663	2
0.832844574780059	0	2
2.25219941348974	0.496578690127077	1
0.946236559139785	0.105571847507331	2
0	0	2
0.0351906158357772	0.0625610948191593	2
2.34604105571848	1.08699902248289	1
2.37732160312805	0.668621700879765	1
0.879765395894428	0.324535679374389	2
0	1.02052785923754	2
0.0078201368523949	1.45845552297165	3
0.402737047898338	0.946236559139785	2
0.152492668621701	0.496578690127077	2
0	0.336265884652981	2
2.60410557184751	2.79569892473118	4
0.144672531769306	0.0273704789833822	2
0.0703812316715542	0	2
0.778103616813294	0.172043010752688	2
2.25610948191593	0.668621700879765	1
0.316715542521994	0.191593352883675	2
0	0.422287390029326	2
0.363636363636364	0	2
0	0	2
2.32258064516129	0.926686217008798	1
0.0664711632453568	0.426197458455523	2
0	0.750733137829912	2
0.148582600195503	0.226783968719453	2
0.504398826979472	0	2
0	0.852394916911046	2
0.0391006842619746	0.735092864125122	2
2.36950146627566	0.918866080156403	1
0	0	2
0	0	2
0	0	2
0.617790811339198	0	2
0	0.43010752688172	2
0	0.89149560117302	2
0.0547409579667644	0.0977517106549365	2
0	0.656891495601173	2
2.39687194525904	0.105571847507331	1
0.864125122189638	0.160312805474096	2
2.47507331378299	3.19843597262952	4
0	0.516129032258065	2
2.47116324535679	0.797653958944281	1
0.4613880742913	0	2
0	0.574780058651026	2
2.49853372434018	2.58064516129032	4
0.578690127077224	0.367546432062561	2
0.480938416422287	0	2
2.34995112414467	0.75464320625611	1
0	0.0312805474095797	2
2.3069403714565	1.41153470185728	1
2.35777126099707	2.97556207233627	4
0.328445747800586	0.347996089931574	2
0.72336265884653	1.64613880742913	3
0	0.480938416422287	2
0	1.6969696969697	3
0.0312805474095797	0.516129032258065	2
0.281524926686217	1.15738025415445	2
0.0351906158357772	0.590420332355816	2
0.4613880742913	0.218963831867058	2
0	0	2
0.367546432062561	0.402737047898338	2
0.49266862170088	0.0234604105571848	2
2.50635386119257	0.406647116324536	1
0.69208211143695	0.109481915933529	2
0.699902248289345	0.699902248289345	2
2.49071358748778	1.02443792766373	1
0.621700879765396	0	2
0.535679374389052	0.860215053763441	2
0.0351906158357772	0	2
1.3880742913001	1.29423264907136	3
0.383186705767351	0	2
2.47507331378299	2.80351906158358	4
0.547409579667644	0.0156402737047898	2
0	0	2
2.25610948191593	1.34506353861193	1
3.49951124144673	4	3
0	0	2
0.238514173998045	0	2
1.34115347018573	1.3919843597263	3
0.828934506353861	0	2
0.465298142717498	0	2
0	0	2
0	0	2
0.539589442815249	0.586510263929619	2
0.688172043010753	1.57575757575758	3
2.24828934506354	0.328445747800586	1
2.43206256109482	3.03812316715543	4
2.58064516129032	2.55718475073314	4
1.2316715542522	1.0791788856305	3
0	0	2
0	0.684261974584555	2
0.848484848484849	0.488758553274682	2
0.531769305962854	0.715542521994135	2
0.473118279569892	0	2
2.49853372434018	2.98729227761486	4
0.43010752688172	0	2
0.484848484848485	0	2
2.31867057673509	0.336265884652981	1
0	0	2
2.3147605083089	2.56500488758553	4
0.344086021505376	0.551319648093842	2
0.0664711632453568	0.672531769305963	2
0	0.140762463343108	2
0.778103616813294	0	2
0	0.805474095796676	2
2.54545454545455	2.73704789833822	4
2.28347996089932	3.43304007820137	4
1.99022482893451	0.809384164222874	1
1.88856304985337	1.88465298142718	4
0.117302052785924	0	2
0	0.852394916911046	2
0	0	2
2.34213098729228	0.688172043010753	1
0	0.449657869012708	2
0	0.21505376344086	2
0.637341153470186	0	2
0.90713587487781	0	2
0.688172043010753	0	2
1.65395894428153	1.41935483870968	3
0.164222873900293	0	2
0	0	2
0.136852394916911	0	2
0	0.801564027370479	2
0.570869990224829	0.410557184750733	2
0.825024437927664	1.01661779081134	2
1.76735092864125	1.62267839687195	4
0	0.0899315738025415	2
2.37341153470186	0.989247311827957	1
0.617790811339198	0.699902248289345	2
0.109481915933529	0	2
2.47116324535679	0.473118279569892	1
0.414467253176931	0	2
0.750733137829912	0	2
0.711632453567937	0.0586510263929619	2
0	0	2
0.574780058651026	0.441837732160313	2
2.25219941348974	0.911045943304008	1
0	0	2
0.543499511241447	0.7702834799609	2
0	0.160312805474096	2
0	0.434017595307918	2
2.48289345063539	3.82795698924731	3
1.28641251221896	1.02834799608993	3
2.29130009775171	0.602150537634409	1
0.422287390029326	0.633431085043988	2
0.594330400782014	0.0351906158357772	2
2.44770283479961	3.28836754643206	4
0	0.398826979472141	2
0.383186705767351	0.136852394916911	2
0.543499511241447	0.269794721407625	2
0	0.782013685239492	2
0	0.242424242424242	2
0.426197458455523	0	2
0	0.574780058651026	2
2.38514173998045	0.993157380254154	1
0	0.273704789833822	2
0.453567937438905	0.793743890518084	2
2.58455522971652	2.41642228739003	4
0.47702834799609	0.336265884652981	2
0.512218963831867	0.293255131964809	2
2.36559139784946	0.609970674486804	1
0.852394916911046	1.20039100684262	3
0.758553274682307	0	2
0.24633431085044	0.293255131964809	2
0.602150537634409	0.183773216031281	2
0	0.488758553274682	2
0.49266862170088	0.649071358748778	2
0.21505376344086	0.187683284457478	2
0	0	2
0.688172043010753	0	2
2.20136852394917	0	1
0	0.258064516129032	2
0.617790811339198	1.91202346041056	3
0.625610948191593	0	2
2.58455522971652	3.26490713587488	4
0.484848484848485	0.242424242424242	2
0	0.0195503421309873	2
0.332355816226784	0.637341153470186	2
2.40860215053763	3.15151515151515	4
0.148582600195503	0	2
2.48289345063539	0.69208211143695	1
1.3841642228739	1.43890518084066	3
2.39296187683284	0.9227761485826	1
2.26001955034213	0.144672531769306	1
2.09970674486804	0.7702834799609	1
0.774193548387097	0	2
0.27761485826002	0.73900293255132	2
0.344086021505376	0.222873900293255	2
0.688172043010753	0.453567937438905	2
0	0.488758553274682	2
1.47409579667644	0.801564027370479	3
1.63049853372434	1.19648093841642	3
0.144672531769306	0	2
0	0	2
0.715542521994135	0	2
0.516129032258065	0	2
0.793743890518084	0.457478005865103	2
0.258064516129032	0.0195503421309873	2
0.387096774193548	0.0156402737047898	2
0.0742913000977517	0	2
2.34995112414467	0.911045943304008	1
2.47116324535679	3.28054740957967	4
0.617790811339198	0.254154447702835	2
0.375366568914956	0.914956011730205	2
2.52590420332356	0.742913000977517	1
0.0391006842619746	0	2
0	0.254154447702835	2
0	0	2
0	0	2
2.43988269794721	3.9960899315738	3
0	0.26197458455523	2
0.535679374389052	0	2
0	0.87585532746823	2
0.394916911045943	0	2
2.50635386119257	3.19452590420332	4
0.801564027370479	0.684261974584555	2
0	0.47702834799609	2
0	0	2
0.0351906158357772	0.566959921798632	2
2.24437927663734	2.03714565004888	4
2.56500488758553	3.06158357771261	4
0.914956011730205	0.101661779081134	2
0	0.422287390029326	2
0.531769305962854	0.0742913000977517	2
0.164222873900293	0	2
0.422287390029326	0.852394916911046	2
2.41642228739003	0	1
0.0703812316715542	0.359726295210166	2
0.23069403714565	0	2
0	0	2
0	0.0782013685239492	2
0	0.23069403714565	2
0.578690127077224	0.0156402737047898	2
0	0.852394916911046	2
0.218963831867058	0.218963831867058	2
0	0	2
2.52199413489736	3.21407624633431	4
0.606060606060606	0	2
0.703812316715543	0	2
2.3030303030303	0.218963831867058	1
0.0469208211143695	0.394916911045943	2
0.47702834799609	0.312805474095797	2
0.234604105571848	0	2
0	0	2
0	0.19941348973607	2
0.512218963831867	0	2
0.480938416422287	0.19941348973607	2
0	0	2
0.613880742913001	0.152492668621701	2
2.3108504398827	0.75464320625611	1
0	0	2
2.51026392961877	2.9247311827957	4
0	0.21505376344086	2
2.37341153470186	1.23949169110459	1
2.36950146627566	3.05767350928641	4
0.44574780058651	0.344086021505376	2
2.24437927663734	1.11827956989247	1
0.574780058651026	0	2
0	0.680351906158358	2
0	0	2
0.66080156402737	0.613880742913001	2
0	0.109481915933529	2
0.289345063538612	0.613880742913001	2
2.65884652981427	2.78787878787879	4
0	0.70772238514174	2
0.774193548387097	0	2
2.34995112414467	1.00097751710655	1
0	0.73900293255132	2
0	0.821114369501466	2
0	0	2
0.774193548387097	0	2
0	0.332355816226784	2
0.852394916911046	0.371456500488759	2
3.74975562072336	3.96480938416422	3
0.203323558162268	0.422287390029326	2
2.40860215053763	3.26099706744868	4
0.586510263929619	0	2
0	0.351906158357771	2
0.0586510263929619	0.218963831867058	2
1.44281524926686	2.20136852394917	3
0.555229716520039	0.680351906158358	2
0.238514173998045	0.563049853372434	2
0	0	2
0.347996089931574	0	2
0.735092864125122	0.0664711632453568	2
0.523949169110459	0.649071358748778	2
0	0.883675464320626	2
1.00879765395894	0.821114369501466	2
0.238514173998045	0	2
0	0	2
0.183773216031281	0.539589442815249	2
0.0469208211143695	0	2
0.684261974584555	0.0664711632453568	2
0.375366568914956	0	2
0.195503421309873	0	2
0	0.457478005865103	2
0.609970674486804	0.449657869012708	2
0.144672531769306	0.195503421309873	2
0.383186705767351	0.44574780058651	2
0.355816226783969	0	2
0.254154447702835	0.175953079178886	2
2.52981427174976	0.242424242424242	1
0.418377321603128	0.195503421309873	2
0	0	2
0.269794721407625	0.175953079178886	2
0	0.0625610948191593	2
2.41642228739003	0	1
2.40860215053763	0.347996089931574	1
0	0	2
0.817204301075269	1.32942326490714	3
2.4633431085044	1.20821114369501	1
0	1.02834799608993	2
0.762463343108504	0.504398826979472	2
0.347996089931574	1.12218963831867	2
0.500488758553275	0.621700879765396	2
0.613880742913001	0	2
2.69794721407625	3.41348973607038	4
0.359726295210166	0.148582600195503	2
0	0.727272727272727	2
0.293255131964809	0.78592375366569	2
2.64711632453568	1.05180840664712	1
0.453567937438905	0	2
0	0	2
2.37732160312805	0.164222873900293	1
0.316715542521994	0.680351906158358	2
0.129032258064516	0.555229716520039	2
1.52101661779081	1.28641251221896	3
0.488758553274682	0	2
2.48680351906158	3.08895405669599	4
0.0117302052785923	0	2
0.367546432062561	0	2
0.187683284457478	0.637341153470186	2
1.21603128054741	0.78592375366569	2
0	0	2
0.304985337243402	0.590420332355816	2
2.23655913978495	0.379276637341153	1
0.24633431085044	0	2
2.42815249266862	0	1
0.496578690127077	0	2
0.218963831867058	0	2
0	0.367546432062561	2
0.0664711632453568	0	2
0	0	2
0	0.652981427174976	2
0	0	2
0.207233626588465	0.78592375366569	2
2.42033235581623	0.27761485826002	1
0.809384164222874	0	2
0.293255131964809	0	2
2.34213098729228	2.65102639296188	4
0	0.21505376344086	2
2.28347996089932	0.121212121212121	1
2.51417399804497	1.2355816226784	1
0.531769305962854	0	2
0.89149560117302	0.465298142717498	2
0	0.0156402737047898	2
2.51808406647116	0.668621700879765	1
0	0	2
2.43988269794721	1.00097751710655	1
0	0	2
0	0.965786901270772	2
0	0.144672531769306	2
0.391006842619746	0.70772238514174	2
2.31867057673509	0.426197458455523	1
0.308895405669599	0	2
0.731182795698925	0.312805474095797	2
0.942326490713588	0.351906158357771	2
0.0625610948191593	0	2
2.47507331378299	2.49071358748778	4
0	0.566959921798632	2
2.25219941348974	0.836754643206256	1
0.695992179863148	0.926686217008798	2
0.125122189638319	0.67644183773216	2
0	0	2
0	0.570869990224829	2
1.9980449657869	1.90420332355816	4
0	0	2
0.371456500488759	0.602150537634409	2
2.4672531769306	1.33333333333333	1
0	0	2
0.0469208211143695	0	2
0	1.16129032258065	2
0.688172043010753	0.652981427174976	2
0.109481915933529	0.44574780058651	2
0	0.473118279569892	2
2.32649071358749	0.997067448680352	1
0.0782013685239492	0	2
0	0.0547409579667644	2
0.590420332355816	0.238514173998045	2
0	0.375366568914956	2
2.42424242424242	0.559139784946237	1
0.0391006842619746	0	2
0.531769305962854	0	2
2.17399804496579	0.813294232649071	1
0	0.7702834799609	2
2.51417399804497	0.344086021505376	1
0	0	2
0.469208211143695	0	2
0.44574780058651	0.547409579667644	2
0.90713587487781	0.516129032258065	2
2.33040078201369	0.793743890518084	1
0.496578690127077	0.531769305962854	2
0	0	2
0.050830889540567	0.582600195503421	2
0.242424242424242	1.05180840664712	2
0.805474095796676	0	2
0.7702834799609	0.26197458455523	2
0.555229716520039	0.0586510263929619	2
0.387096774193548	0.453567937438905	2
0.0586510263929619	0.136852394916911	2
0.652981427174976	0	2
0.62952101661779	0	2
0.504398826979472	0	2
1.51319648093842	1.35288367546432	3
0.782013685239492	0.50830889540567	2
0.324535679374389	0	2
0.234604105571848	0.774193548387097	2
0.96969696969697	1.0830889540567	3
0	0.23069403714565	2
0.559139784946237	0.402737047898338	2
0.195503421309873	0.27761485826002	2
0.934506353861193	0	2
2.36168132942327	0.680351906158358	1
0	0	2
0.570869990224829	0.437927663734115	2
0	0.598240469208211	2
1.10654936461388	1.35679374389052	3
0.258064516129032	0.782013685239492	2
0.340175953079179	0.731182795698925	2
2.4594330400782	0.95405669599218	1
2.74486803519062	2.52590420332356	4
2.35777126099707	0.105571847507331	1
0.69208211143695	0.0351906158357772	2
1.62658846529814	1.65395894428153	3
0.226783968719453	0	2
2.26001955034213	0.977517106549365	1
0.523949169110459	0.113391984359726	2
0	0.304985337243402	2
2.32258064516129	0	1
0.758553274682307	0.434017595307918	2
0.129032258064516	0	2
0.637341153470186	0	2
0.566959921798632	0.148582600195503	2
1.09872922776149	1.20821114369501	3
0	0	2
1.3841642228739	1.37634408602151	3
0.457478005865103	0	2
0	0.332355816226784	2
0	0.0312805474095797	2
0.43010752688172	0.148582600195503	2
0.398826979472141	0.49266862170088	2
2.32258064516129	0.930596285434995	1
0	0	2
2.49462365591398	0.496578690127077	1
2.43206256109482	0.98533724340176	1
0.582600195503421	0.652981427174976	2
0	0.828934506353861	2
0.621700879765396	0.144672531769306	2
0.19941348973607	0.582600195503421	2
0	0.774193548387097	2
0	0.207233626588465	2
0	0.4613880742913	2
2.65884652981427	0.977517106549365	1
2.12707722385142	1.20430107526882	1
0.340175953079179	0	2
2.29130009775171	0.473118279569892	1
0.140762463343108	0	2
2.60410557184751	0.67644183773216	1
0	0	2
0.899315738025415	0.258064516129032	2
0	0.398826979472141	2
0	0	2
0	0.332355816226784	2
0.23069403714565	0	2
0	0.695992179863148	2
2.42424242424242	3.18670576735093	4
0	0.47702834799609	2
0.0469208211143695	0.613880742913001	2
0	0.793743890518084	2
0.0977517106549365	0.344086021505376	2
0.62952101661779	0.301075268817204	2
0.0351906158357772	0.555229716520039	2
0.402737047898338	0	2
2.43988269794721	2.65884652981427	4
2.49071358748778	3.01857282502444	4
0.379276637341153	0	2
0.488758553274682	0	2
0.0078201368523949	0	2
0.281524926686217	0.652981427174976	2
0	0.222873900293255	2
0.379276637341153	0.132942326490714	2
2.36559139784946	0.47702834799609	1
0	0	2
2.29912023460411	1.02443792766373	1
0	0.238514173998045	2
0.871945259042033	0.187683284457478	2
0.49266862170088	0.523949169110459	2
0.254154447702835	0.0586510263929619	2
0	0.164222873900293	2
0.222873900293255	0.367546432062561	2
0.64516129032258	0.539589442815249	2
2.26392961876833	0.778103616813294	1
0.00391006842619744	0.469208211143695	2
0	0.086021505376344	2
0.44574780058651	0	2
0.735092864125122	0.72336265884653	2
0	0.96969696969697	2
0	0.801564027370479	2
2.31867057673509	0.551319648093842	1
0	0	2
0.641251221896383	0.355816226783969	2
0.344086021505376	0	2
0	0.222873900293255	2
0	0	2
0.566959921798632	0.0195503421309873	2
0.254154447702835	0	2
0.140762463343108	0.0156402737047898	2
0.355816226783969	0.418377321603128	2
0.387096774193548	0.539589442815249	2
0.480938416422287	0	2
0.625610948191593	0.4613880742913	2
0.547409579667644	0.70772238514174	2
0	0.0742913000977517	2
0.250244379276637	0.840664711632454	2
0	0.164222873900293	2
0.453567937438905	0	2
0	0.78592375366569	2
3.9960899315738	3.57771260997067	3
0	0	2
0	0	2
0.832844574780059	1.13782991202346	3
0	0.828934506353861	2
0	0.625610948191593	2
0.27761485826002	0.160312805474096	2
0.75464320625611	0.801564027370479	2
0	0	2
0.649071358748778	0.566959921798632	2
2.50244379276637	2.85434995112414	4
0	0.344086021505376	2
0.140762463343108	0	2
0	0	2
0.238514173998045	0.242424242424242	2
0.234604105571848	0.70772238514174	2
0.516129032258065	0.258064516129032	2
0.164222873900293	0.344086021505376	2
0	0	2
0.289345063538612	0	2
0.0351906158357772	0	2
0.0547409579667644	0.406647116324536	2
0	0.523949169110459	2
0.774193548387097	0.383186705767351	2
0.117302052785924	0.574780058651026	2
1.61094819159335	1.52492668621701	3
0.129032258064516	0	2
0.132942326490714	0.168132942326491	2
0.7702834799609	0	2
0.563049853372434	0.172043010752688	2
1.60703812316716	1.02834799608993	3
0	0	2
0.758553274682307	0	2
0.418377321603128	0.809384164222874	2
0.727272727272727	0	2
0.093841642228739	0	2
0.179863147605083	0.148582600195503	2
0.758553274682307	0.0351906158357772	2
0.93841642228739	0.0469208211143695	2
0	0.406647116324536	2
0.0273704789833822	0	2
0	0.269794721407625	2
0	0.860215053763441	2
0.355816226783969	0	2
0	0.484848484848485	2
2.3030303030303	2.27956989247312	4
0.312805474095797	0	2
0.594330400782014	0	2
0	0.789833822091887	2
0.0195503421309873	0	2
0	0	2
0	0.340175953079179	2
0.347996089931574	0.0156402737047898	2
0.109481915933529	0.23069403714565	2
0	0.793743890518084	2
0	0.0469208211143695	2
0	0	2
0.21505376344086	1.02834799608993	2
0	0	2
0	0	2
0.0195503421309873	0.758553274682307	2
2.49071358748778	0.965786901270772	1
2.44770283479961	0.551319648093842	1
0	0	2
0.238514173998045	0	2
0.582600195503421	0.27761485826002	2
2.3069403714565	1.13391984359726	1
0.813294232649071	0	2
0	0.0742913000977517	2
0.809384164222874	0	2
0	0.0156402737047898	2
0	0	2
0.289345063538612	0	2
0	0.359726295210166	2
0.566959921798632	0	2
0	0.340175953079179	2
0	0.500488758553275	2
0	0	2
0	0.0195503421309873	2
0	0.586510263929619	2
0	0	2
0	0.441837732160313	2
0.23069403714565	0.527859237536657	2
0.273704789833822	0.0117302052785923	2
2.57282502443793	2.72922776148583	4
0.711632453567937	0.426197458455523	2
0	0	2
0.316715542521994	0.0195503421309873	2
0	0.289345063538612	2
0.926686217008798	0.950146627565982	2
2.35386119257087	0.473118279569892	1
2.6080156402737	3.18279569892473	4
1.60703812316716	1.35679374389052	3
0.742913000977517	0.731182795698925	2
2.36559139784946	2.96383186705767	4
2.74095796676442	3.36656891495601	4
0.21505376344086	0.633431085043988	2
0.383186705767351	0	2
0.453567937438905	0.144672531769306	2
0.0117302052785923	0	2
0	0.750733137829912	2
0	0	2
0	0	2
0	0.0078201368523949	2
0	0.156402737047898	2
0.547409579667644	0.27761485826002	2
0.89149560117302	0	2
2.40078201368524	0.914956011730205	1
0	0.602150537634409	2
0	0.566959921798632	2
0	0.254154447702835	2
0.449657869012708	0	2
2.38123167155425	0.265884652981427	1
0	0	2
0.359726295210166	1.2355816226784	3
0.621700879765396	0.0078201368523949	2
0.0391006842619746	0.347996089931574	2
0.672531769305963	0	2
0	0.113391984359726	2
2.40469208211144	2.74877810361681	4
0.555229716520039	0	2
0.926686217008798	0.90713587487781	2
0.316715542521994	0	2
0	0	2
0.195503421309873	0.441837732160313	2
2.34995112414467	0.778103616813294	1
0.258064516129032	0.527859237536657	2
0.050830889540567	0.0078201368523949	2
0.226783968719453	0.441837732160313	2
0	0.383186705767351	2
0	0.383186705767351	2
0.496578690127077	0.0273704789833822	2
0	1.06744868035191	2
0.746823069403715	0.21505376344086	2
2.34213098729228	0.0195503421309873	1
0	0	2
2.38905180840665	0.551319648093842	1
0	0.69208211143695	2
2.47507331378299	0.805474095796676	1
0.531769305962854	0.129032258064516	2
0.422287390029326	0	2
0.281524926686217	0	2
0	0	2
0.67644183773216	0.0078201368523949	2
0.093841642228739	0	2
0	0.328445747800586	2
0	0	2
0.340175953079179	0	2
0	0.4613880742913	2
0.258064516129032	0.254154447702835	2
2.88954056695992	0.848484848484849	1
0	0.586510263929619	2
0	0.680351906158358	2
0.355816226783969	0	2
0.0782013685239492	0	2
0	0.821114369501466	2
0.426197458455523	0.19941348973607	2
0.762463343108504	0.453567937438905	2
0.758553274682307	0	2
0.148582600195503	0.328445747800586	2
0.265884652981427	0	2
0.0664711632453568	0.602150537634409	2
2.44379276637341	0.281524926686217	1
0.402737047898338	0	2
0.47702834799609	0.359726295210166	2
0	0.226783968719453	2
1.48582600195503	1.46236559139785	3
2.36168132942327	0.840664711632454	1
2.39687194525904	0.586510263929619	1
0.72336265884653	0	2
0.609970674486804	0.156402737047898	2
0.434017595307918	0.551319648093842	2
0	0.47702834799609	2
0.160312805474096	0	2
2.40469208211144	0.879765395894428	1
3.069403714565	4	3
0.222873900293255	0.332355816226784	2
0.539589442815249	0.469208211143695	2
2.11143695014663	1.13000977517107	1
0	0	2
0	0.129032258064516	2
0	0.0195503421309873	2
0	0.672531769305963	2
0.688172043010753	0	2
2.41642228739003	1.18084066471163	1
0	0.766373411534702	2
2.53763440860215	2.87390029325513	4
0.21505376344086	0	2
0.402737047898338	0.946236559139785	2
0.609970674486804	0.844574780058651	2
0.774193548387097	0.809384164222874	2
2.52199413489736	3.04203323558162	4
0.719452590420332	0.47702834799609	2
0	0.129032258064516	2
0	0	2
0	0	2
0.43010752688172	0.0703812316715542	2
2.24046920821114	1.34897360703812	1
0.797653958944281	0.304985337243402	2
0.0703812316715542	0	2
0	0.789833822091887	2
0	0.782013685239492	2
0.78592375366569	0.586510263929619	2
2.26392961876833	3.02248289345064	4
0.0782013685239492	0.109481915933529	2
0.719452590420332	0	2
0.175953079178886	0.89149560117302	2
0	0.684261974584555	2
0.129032258064516	0	2
0.664711632453568	0.711632453567937	2
0	0.598240469208211	2
2.3147605083089	0.70772238514174	1
2.158357771261	0.825024437927664	1
2.42424242424242	0.926686217008798	1
2.38905180840665	2.94819159335288	4
0.121212121212121	0.414467253176931	2
0	0.453567937438905	2
0.211143695014663	0	2
0	0.836754643206256	2
0.496578690127077	0	2
0.289345063538612	1.17302052785924	2
2.45161290322581	1.03225806451613	1
0.301075268817204	0	2
0.19941348973607	0.00391006842619744	2
0.47702834799609	0.946236559139785	2
0	0.0625610948191593	2
0	0.49266862170088	2
0.0351906158357772	0.50830889540567	2
0	0	2
0.942326490713588	0	2
0.19941348973607	0.27761485826002	2
0	0.574780058651026	2
2.26001955034213	0.98533724340176	1
2.41251221896383	2.89736070381232	4
0.566959921798632	0	2
0	0.609970674486804	2
0.801564027370479	0	2
1.56011730205279	0.234604105571848	3
0.856304985337244	0	2
2.58846529814272	0.684261974584555	1
0.684261974584555	0.418377321603128	2
2.54936461388074	3.01466275659824	4
0	0	2
0	0	2
0	0.918866080156403	2
0	0.488758553274682	2
2.36168132942327	0.175953079178886	1
0.316715542521994	0.672531769305963	2
2.41642228739003	0	1
0.504398826979472	0	2
2.42815249266862	1.00488758553275	1
0.21505376344086	0.351906158357771	2
0.473118279569892	0.0312805474095797	2
1.47018572825024	1.3880742913001	3
0	0.582600195503421	2
0.086021505376344	0.797653958944281	2
0	0.191593352883675	2
0.782013685239492	0.504398826979472	2
0	0	2
0.172043010752688	0.347996089931574	2
0.527859237536657	1.13391984359726	2
0.789833822091887	0.0391006842619746	2
0.695992179863148	0	2
0.293255131964809	0.387096774193548	2
0.649071358748778	0	2
0	0.688172043010753	2
0	0.383186705767351	2
0.977517106549365	0	2
0.414467253176931	0	2
0.160312805474096	0.47702834799609	2
0.50830889540567	0.78592375366569	2
0	0.50830889540567	2
0.359726295210166	0.520039100684262	2
0.512218963831867	0.0547409579667644	2
2.53372434017595	3.27272727272727	4
0.453567937438905	0.680351906158358	2
0	0.539589442815249	2
0.27761485826002	0.465298142717498	2
2.4633431085044	2.55718475073314	4
0.586510263929619	0	2
0.387096774193548	0.887585532746823	2
0	0.383186705767351	2
0	0.496578690127077	2
0.727272727272727	0	2
0.418377321603128	0	2
0.258064516129032	0	2
0.238514173998045	0.609970674486804	2
0.594330400782014	0.480938416422287	2
2.52199413489736	2.85434995112414	4
0.332355816226784	0.0273704789833822	2
0.453567937438905	0.00391006842619744	2
0	0	2
0.868035190615836	0.316715542521994	2
0.0312805474095797	0.613880742913001	2
0	0.586510263929619	2
0.821114369501466	1.21603128054741	3
0.868035190615836	0	2
0.453567937438905	0.523949169110459	2
2.34604105571848	3.85532746823069	3
0.500488758553275	0.179863147605083	2
0.551319648093842	0.590420332355816	2
0.289345063538612	0.69208211143695	2
0.344086021505376	0.340175953079179	2
0.391006842619746	0.860215053763441	2
2.20136852394917	0.957966764418377	1
2.455522971652	0.809384164222874	1
0.699902248289345	0.680351906158358	2
0.144672531769306	0.0430107526881721	2
0.437927663734115	0.809384164222874	2
0	0.164222873900293	2
0	0.805474095796676	2
2.49071358748778	2.99902248289345	4
2.09970674486804	1.24731182795699	1
0.680351906158358	0.606060606060606	2
2.42424242424242	3.27272727272727	4
0.809384164222874	0.383186705767351	2
0	0	2
2.56891495601173	2.95210166177908	4
2.51808406647116	0.879765395894428	1
2.39687194525904	0.301075268817204	1
0.72336265884653	1.35679374389052	3
0.437927663734115	0.402737047898338	2
0.7702834799609	0.226783968719453	2
0	0.78592375366569	2
2.64711632453568	3.21798631476051	4
0	0.73900293255132	2
0	0.625610948191593	2
0	0	2
0.254154447702835	0.398826979472141	2
0	0	2
0.64516129032258	0.168132942326491	2
0.840664711632454	0.050830889540567	2
0	0.551319648093842	2
0.574780058651026	0.359726295210166	2
0.570869990224829	0.359726295210166	2
0	0.328445747800586	2
0	0	2
2.33822091886608	0.0625610948191593	1
0.242424242424242	0.500488758553275	2
0	0	2
0.152492668621701	0.0351906158357772	2
0	0	2
0	0.0391006842619746	2
0.273704789833822	0.109481915933529	2
0	0.418377321603128	2
0.301075268817204	0.473118279569892	2
0	0	2
0.578690127077224	0.828934506353861	2
0	0.0273704789833822	2
0	0.69208211143695	2
0.590420332355816	0.0469208211143695	2
0.516129032258065	0	2
0.719452590420332	0.355816226783969	2
0.70772238514174	0.293255131964809	2
0.093841642228739	0.625610948191593	2
0.766373411534702	0.258064516129032	2
0.449657869012708	0	2
0.363636363636364	0	2
2.51026392961877	2.88954056695992	4
0	0.441837732160313	2
2.28347996089932	0.69208211143695	1
2.40469208211144	0.0782013685239492	1
0.121212121212121	0.144672531769306	2
0.609970674486804	0	2
1.08699902248289	0.312805474095797	2
0.218963831867058	0	2
0	0.43010752688172	2
0.297165200391007	0	2
0.465298142717498	1.46627565982405	3
2.4672531769306	0	1
2.54936461388074	3.31964809384164	4
0.551319648093842	0.293255131964809	2
0	0.250244379276637	2
0.500488758553275	0.437927663734115	2
0	0.422287390029326	2
0	0	2
0	0.0742913000977517	2
2.26001955034213	0.586510263929619	1
2.48680351906158	3.32746823069404	4
0	0	2
0	0	2
2.38905180840665	1.50537634408602	4
0	0.363636363636364	2
1.32160312805474	1.43890518084066	3
0	0	2
0.418377321603128	0	2
0.961876832844575	0.0742913000977517	2
0	0.312805474095797	2
0.868035190615836	0.258064516129032	2
1.33724340175953	1.52883675464321	3
2.42424242424242	3.32746823069404	4
0	0	2
0	0	2
0.340175953079179	0	2
2.27174975562072	0.301075268817204	1
0.24633431085044	0	2
0.50830889540567	0.453567937438905	2
0.324535679374389	0.535679374389052	2
3.12414467253177	1.14956011730205	1
0.668621700879765	0	2
2.47898338220919	0.699902248289345	1
0.449657869012708	0	2
0.504398826979472	0.183773216031281	2
0.207233626588465	0.0234604105571848	2
0.332355816226784	0	2
0.117302052785924	0.727272727272727	2
0	0	2
0	0.836754643206256	2
0.340175953079179	0.254154447702835	2
0	0.950146627565982	2
0.434017595307918	0.398826979472141	2
0.703812316715543	0.551319648093842	2
0.484848484848485	0.66080156402737	2
0.344086021505376	0.359726295210166	2
0.699902248289345	0	2
0.0899315738025415	0.49266862170088	2
2.29130009775171	0.78592375366569	1
0	0.70772238514174	2
1.41153470185728	1.18084066471163	3
0.703812316715543	0.0742913000977517	2
0.387096774193548	0.0391006842619746	2
0.652981427174976	0.719452590420332	2
0	0	2
0.187683284457478	0.191593352883675	2
0.437927663734115	0.0117302052785923	2
0.129032258064516	0.625610948191593	2
0	0.832844574780059	2
2.22482893450635	0.469208211143695	1
0.44574780058651	0	2
0.453567937438905	0.172043010752688	2
0	0.67644183773216	2
0.175953079178886	0.394916911045943	2
2.29912023460411	0.977517106549365	1
0.797653958944281	0.758553274682307	2
0.148582600195503	0	2
0.285434995112414	0	2
0.289345063538612	0.602150537634409	2
0.24633431085044	0.301075268817204	2
0	0.762463343108504	2
0.355816226783969	0	2
0.238514173998045	0	2
2.67448680351906	0	1
0.828934506353861	0.168132942326491	2
0.512218963831867	0.555229716520039	2
0.570869990224829	0.87585532746823	2
2.55327468230694	0.69208211143695	1
2.33431085043988	0.70772238514174	1
0	0.351906158357771	2
0.441837732160313	0	2
0	0	2
2.43597262952102	0.504398826979472	1
0	0.406647116324536	2
0.391006842619746	0	2
0	0.523949169110459	2
2.34995112414467	1.86119257086999	4
0.551319648093842	0	2
0.398826979472141	0.469208211143695	2
0	0.633431085043988	2
0	0.0195503421309873	2
0.469208211143695	0	2
0	0	2
2.3108504398827	0.4613880742913	1
0.582600195503421	0	2
2.66275659824047	2.7683284457478	4
0	0.981427174975562	2
1.13391984359726	1.36461388074291	3
0.363636363636364	0.402737047898338	2
0	0.351906158357771	2
0.414467253176931	0	2
2.32258064516129	0.735092864125122	1
0.504398826979472	0.69208211143695	2
0	0.465298142717498	2
0	0	2
0.301075268817204	0.762463343108504	2
0	0	2
0.578690127077224	0	2
0.500488758553275	0.75464320625611	2
0	0.598240469208211	2
2.34213098729228	0.871945259042033	1
0.543499511241447	0.4613880742913	2
0	0	2
2.47507331378299	0	1
2.44770283479961	0.609970674486804	1
0	0.144672531769306	2
0.187683284457478	0.0664711632453568	2
0.9227761485826	0.836754643206256	2
0.0430107526881721	0.23069403714565	2
0.942326490713588	0	2
0	0	2
2.3030303030303	2.7683284457478	4
0.617790811339198	0	2
0	0.719452590420332	2
1.81427174975562	1.64222873900293	4
0	0.0117302052785923	2
0.742913000977517	0	2
1.57575757575758	1.55620723362659	3
0	0.566959921798632	2
0	1.00879765395894	2
2.49462365591398	2.72140762463343	4
0	0	2
2.44770283479961	1.34115347018573	1
0.617790811339198	0.613880742913001	2
0.250244379276637	0.0703812316715542	2
0	0.672531769305963	2
0.680351906158358	0.656891495601173	2
0.363636363636364	0.156402737047898	2
0	0.727272727272727	2
0.64516129032258	0	2
0	0.864125122189638	2
0.398826979472141	0.67644183773216	2
0.813294232649071	0.0899315738025415	2
0.0351906158357772	0	2
0.140762463343108	0.832844574780059	2
0.836754643206256	0.695992179863148	2
0.594330400782014	0.512218963831867	2
0	0	2
0.672531769305963	0	2
0.778103616813294	0	2
2.47507331378299	2.74486803519062	4
0.0469208211143695	0.621700879765396	2
2.25219941348974	0.72336265884653	1
0	0	2
0.78592375366569	0	2
0.414467253176931	0.0351906158357772	2
0.488758553274682	0	2
2.06060606060606	1.95112414467253	4
0.344086021505376	0.375366568914956	2
2.4672531769306	0.69208211143695	1
0.844574780058651	0.809384164222874	2
0.0703812316715542	0.402737047898338	2
0.512218963831867	0.281524926686217	2
0.668621700879765	0	2
0.899315738025415	0.852394916911046	2
0	0	2
0.0742913000977517	0.148582600195503	2
0.993157380254154	0.371456500488759	2
2.49071358748778	3.10068426197458	4
0.304985337243402	0	2
0.637341153470186	0.633431085043988	2
0.746823069403715	0.387096774193548	2
2.48680351906158	3.00684261974585	4
0	0.762463343108504	2
0	0.699902248289345	2
0	0	2
2.40078201368524	0.347996089931574	1
0.0821114369501466	0.668621700879765	2
0.70772238514174	0.965786901270772	2
2.51026392961877	2.90909090909091	4
0.473118279569892	0.527859237536657	2
0	0.531769305962854	2
2.49071358748778	2.96774193548387	4
0.363636363636364	0	2
0.590420332355816	0.4613880742913	2
1.02052785923754	1.29423264907136	3
0.304985337243402	0.273704789833822	2
0.0742913000977517	0	2
0.363636363636364	0.574780058651026	2
0	0	2
2.27174975562072	0.586510263929619	1
0	0.281524926686217	2
0.47702834799609	1.61876832844575	3
0	0.140762463343108	2
0	0.426197458455523	2
2.42033235581623	0.67644183773216	1
0.957966764418377	0.805474095796676	2
0	0.656891495601173	2
0.218963831867058	0	2
0	0.868035190615836	2
1.03616813294233	0	2
0.402737047898338	0	2
0.742913000977517	0.371456500488759	2
0.72336265884653	0.672531769305963	2
0	1.02052785923754	2
0	0	2
0	0	2
0	0.703812316715543	2
0.222873900293255	0.0821114369501466	2
2.42424242424242	3.13587487781036	4
2.42424242424242	1.14173998044966	1
0.363636363636364	0	2
0.50830889540567	0.473118279569892	2
0.410557184750733	0	2
0	0.00391006842619744	2
0.093841642228739	0	2
2.53763440860215	0.570869990224829	1
0.21505376344086	0.480938416422287	2
0	0	2
2.63538611925709	3.21407624633431	4
0	0	2
0.78592375366569	0.750733137829912	2
0.434017595307918	0	2
0.316715542521994	0	2
2.51808406647116	3.24926686217009	4
0.144672531769306	0.328445747800586	2
0.527859237536657	0	2
0	0	2
2.23264907135875	1.01661779081134	1
2.41642228739003	1.04789833822092	1
0.793743890518084	0	2
0	0.125122189638319	2
0.394916911045943	0.402737047898338	2
0.26197458455523	0	2
0.75464320625611	0.535679374389052	2
0	0	2
0	0	2
0.312805474095797	0.434017595307918	2
0.172043010752688	0.840664711632454	2
0.21505376344086	0.989247311827957	2
0	0	2
1.82600195503421	2.09579667644184	4
0	0.711632453567937	2
0.703812316715543	0	2
2.52981427174976	0.285434995112414	1
0.64516129032258	0.942326490713588	2
0.129032258064516	0	2
0.617790811339198	0	2
0	0	2
2.48289345063539	1.10263929618768	1
0.164222873900293	0.0703812316715542	2
0	0.703812316715543	2
0.680351906158358	0.523949169110459	2
0.0195503421309873	0.832844574780059	2
0	0.44574780058651	2
2.52590420332356	2.65493646138807	4
0	0	2
2.51026392961877	2.41642228739003	4
0.977517106549365	0	2
0.0195503421309873	0	2
0	0	2
0.535679374389052	0	2
0	0	2
2.25610948191593	0.129032258064516	1
0.594330400782014	0.480938416422287	2
0.238514173998045	0.641251221896383	2
0	0	2
0	0.574780058651026	2
2.32649071358749	0	1
0	0.766373411534702	2
2.39687194525904	0.746823069403715	1
0.821114369501466	0	2
1.52101661779081	1.42326490713587	3
0	0.868035190615836	2
0.641251221896383	0.758553274682307	2
2.67057673509286	3.08504398826979	4
0.586510263929619	0.269794721407625	2
0.281524926686217	0.551319648093842	2
0.50830889540567	0.672531769305963	2
0.351906158357771	1.26295210166178	3
0	0.0234604105571848	2
0.473118279569892	0	2
0	0	2
2.69794721407625	3.78885630498534	3
0	0.488758553274682	2
2.85434995112414	4	3
0	0.500488758553275	2
0.0273704789833822	0.559139784946237	2
0.67644183773216	0.633431085043988	2
0.24633431085044	0	2
0.609970674486804	0.602150537634409	2
0.391006842619746	0.750733137829912	2
0.727272727272727	1.0791788856305	2
0.0312805474095797	0	2
2.38514173998045	0.782013685239492	1
0	0.703812316715543	2
0.453567937438905	0	2
2.455522971652	2.39687194525904	4
0.222873900293255	0	2
0.543499511241447	0.238514173998045	2
0.516129032258065	0	2
2.57282502443793	2.97165200391007	4
0	0.637341153470186	2
0.67644183773216	0.19941348973607	2
0.473118279569892	0.394916911045943	2
0.590420332355816	0.086021505376344	2
0.469208211143695	0	2
0.093841642228739	0	2
2.4672531769306	3.10850439882698	4
2.56109481915934	3.06549364613881	4
0.148582600195503	0.273704789833822	2
0	0	2
1.12218963831867	0.664711632453568	2
0.0195503421309873	0	2
0.582600195503421	0	2
0.332355816226784	0.727272727272727	2
2.29130009775171	1.57575757575758	4
0	0	2
0.312805474095797	0.703812316715543	2
2.42424242424242	0	1
0.782013685239492	0	2
0.312805474095797	0.160312805474096	2
0.825024437927664	0.637341153470186	2
0	0.304985337243402	2
0.613880742913001	0.69208211143695	2
0.606060606060606	1.87683284457478	3
0.504398826979472	0.504398826979472	2
0	0	2
0.109481915933529	0.273704789833822	2
0.555229716520039	0.89149560117302	2
0.62952101661779	0.488758553274682	2
0.0391006842619746	0	2
0.453567937438905	0.0469208211143695	2
0	0	2
0.379276637341153	0.132942326490714	2
0.0625610948191593	0.0547409579667644	2
0.47702834799609	0	2
1.00097751710655	0.825024437927664	2
0.520039100684262	0.668621700879765	2
2.03714565004888	0.993157380254154	1
0	0	2
0.375366568914956	0	2
2.455522971652	0.766373411534702	1
2.47898338220919	3.45650048875855	4
0.981427174975562	0.789833822091887	2
0.656891495601173	0	2
0.0312805474095797	0	2
0.242424242424242	0	2
0.586510263929619	0.441837732160313	2
0.641251221896383	0.727272727272727	2
0.175953079178886	0	2
0.207233626588465	0	2
0	0	2
3.91397849462366	3.36265884652981	3
0.0977517106549365	0.238514173998045	2
2.35386119257087	0	1
0.0273704789833822	0.0821114369501466	2
0	0.308895405669599	2
0.746823069403715	0.7702834799609	2
0.168132942326491	0	2
0.293255131964809	0.250244379276637	2
0.183773216031281	0.0547409579667644	2
0.844574780058651	0.69208211143695	2
0	0	2
0.531769305962854	0	2
2.455522971652	0.67644183773216	1
0	0.625610948191593	2
0	0.520039100684262	2
0.168132942326491	0.652981427174976	2
0.649071358748778	3.76539589442815	3
0.093841642228739	0.699902248289345	2
0	0.609970674486804	2
2.3030303030303	0.668621700879765	1
0.160312805474096	0.187683284457478	2
0.0391006842619746	0.828934506353861	2
2.48680351906158	3.6989247311828	3
0.594330400782014	0.355816226783969	2
1.89638318670577	3.67937438905181	3
0.871945259042033	0.997067448680352	2
2.51026392961877	1.41153470185728	1
0.105571847507331	0.551319648093842	2
0.617790811339198	0.0547409579667644	2
0.109481915933529	0.527859237536657	2
0.226783968719453	0.304985337243402	2
0.164222873900293	0	2
0.19941348973607	0	2
2.47898338220919	0.762463343108504	1
0.559139784946237	0.344086021505376	2
0	0.664711632453568	2
2.47898338220919	0.21505376344086	1
0	0.308895405669599	2
2.10752688172043	0.918866080156403	1
0.434017595307918	0.555229716520039	2
0	0	2
0	0.594330400782014	2
2.56500488758553	3.16715542521994	4
2.52590420332356	2.56109481915934	4
0.652981427174976	0	2
0.903225806451613	0	2
0.543499511241447	0	2
0.602150537634409	0.656891495601173	2
0	0	2
0	0	2
0.363636363636364	0	2
4	3.96871945259042	3
0.0742913000977517	0.0586510263929619	2
0.535679374389052	0.543499511241447	2
2.09579667644184	1.37243401759531	1
0	0.672531769305963	2
0.175953079178886	0	2
0.281524926686217	0.465298142717498	2
0.782013685239492	0.316715542521994	2
0	0.555229716520039	2
0.836754643206256	0.156402737047898	2
0.746823069403715	0	2
0	0.50830889540567	2
0	0	2
0.402737047898338	0.0195503421309873	2
2.38905180840665	1.17302052785924	1
2.34213098729228	1.10263929618768	1
4	3.87096774193548	3
2.28347996089932	0.989247311827957	1
0.312805474095797	0.144672531769306	2
0	0.344086021505376	2
0.297165200391007	0	2
0.101661779081134	0.703812316715543	2
0.328445747800586	1.45454545454545	3
0.19941348973607	0	2
0.586510263929619	0	2
0	0.887585532746823	2
0.418377321603128	0	2
0.0586510263929619	0	2
0.258064516129032	0	2
0.105571847507331	0	2
2.59237536656891	3.97262952101662	3
2.20527859237537	0.918866080156403	1
0	0.172043010752688	2
0.183773216031281	0.590420332355816	2
0.606060606060606	0.312805474095797	2
0.668621700879765	0	2
0.950146627565982	0.715542521994135	2
0	0.0469208211143695	2
0.78592375366569	0.394916911045943	2
0.598240469208211	0.73900293255132	2
2.67057673509286	3.11632453567937	4
1.5327468230694	0.234604105571848	3
0.355816226783969	0	2
0.789833822091887	0.293255131964809	2
0.473118279569892	0.254154447702835	2
0.70772238514174	0.160312805474096	2
0	0	2
0.304985337243402	0.758553274682307	2
0	0.0703812316715542	2
0.332355816226784	0.285434995112414	2
0	0.449657869012708	2
0	0.488758553274682	2
1.09090909090909	0.961876832844575	2
0.625610948191593	0.637341153470186	2
0.312805474095797	0	2
0	0	2
4	3.94916911045943	3
0.844574780058651	0	2
2.38905180840665	1.01270772238514	1
0.434017595307918	0	2
0.617790811339198	0.574780058651026	2
0.868035190615836	2.9169110459433	3
2.09579667644184	0.49266862170088	1
2.3069403714565	0.946236559139785	1
0	0.78592375366569	2
0.0195503421309873	0	2
2.52981427174976	3.02248289345064	4
0.47702834799609	0.633431085043988	2
0	0.410557184750733	2
2.26783968719453	0.911045943304008	1
0	0.347996089931574	2
0	0	2
0	0.49266862170088	2
1.79863147605083	1.65395894428153	4
0.375366568914956	0.254154447702835	2
0.101661779081134	0	2
0.437927663734115	0.825024437927664	2
0	0.67644183773216	2
2.40860215053763	0	1
0.821114369501466	0.304985337243402	2
1.2355816226784	0.563049853372434	2
0.70772238514174	0	2
0.394916911045943	0.426197458455523	2
0.254154447702835	0.746823069403715	2
0.437927663734115	0.191593352883675	2
0	1.02443792766373	2
0.164222873900293	0.195503421309873	2
0.727272727272727	0	2
0.625610948191593	0	2
0	0	2
1.86119257086999	0.98533724340176	1
0.140762463343108	0.664711632453568	2
2.27174975562072	0.848484848484849	1
0.293255131964809	0.117302052785924	2
0.0547409579667644	0.0195503421309873	2
0	0.175953079178886	2
0.24633431085044	0.469208211143695	2
0.69208211143695	0.351906158357771	2
0.977517106549365	3.66373411534702	3
0.465298142717498	0.613880742913001	2
0.371456500488759	0	2
0	0.355816226783969	2
2.455522971652	0.684261974584555	1
0.0703812316715542	0	2
0.289345063538612	0.856304985337244	2
0	0.0195503421309873	2
0	0.0430107526881721	2
0	0.340175953079179	2
0.320625610948192	0	2
2.43988269794721	2.97556207233627	4
0	0	2
2.3108504398827	1.57575757575758	4
0.175953079178886	0.0625610948191593	2
0	0	2
0	0	2
0.285434995112414	0.363636363636364	2
0.473118279569892	0.242424242424242	2
0.449657869012708	0	2
0.664711632453568	0.539589442815249	2
2.37341153470186	3.16715542521994	4
0	0.218963831867058	2
0	0.664711632453568	2
2.34995112414467	0.750733137829912	1
0.766373411534702	0	2
0.868035190615836	0	2
2.19745845552297	0.73900293255132	1
0.817204301075269	0.66080156402737	2
0.148582600195503	0.160312805474096	2
2.25610948191593	0.774193548387097	1
0	0.688172043010753	2
0.238514173998045	0.465298142717498	2
0	0.21505376344086	2
0.0351906158357772	0.805474095796676	2
0.168132942326491	0	2
0.332355816226784	0	2
0	0.789833822091887	2
0.449657869012708	0.633431085043988	2
0	0.825024437927664	2
0.590420332355816	0.109481915933529	2
0.144672531769306	0	2
0	0	2
0	0.758553274682307	2
0.457478005865103	0.312805474095797	2
0	0.742913000977517	2
0.457478005865103	0.746823069403715	2
0.789833822091887	0.26197458455523	2
0.0742913000977517	0.480938416422287	2
1.66959921798631	1.44672531769306	3
0.406647116324536	0	2
0	0	2
0.715542521994135	0	2
0	0.359726295210166	2
0.21505376344086	0.49266862170088	2
1.9980449657869	0.871945259042033	1
0	0.930596285434995	2
0.289345063538612	0	2
0	0.883675464320626	2
2.51417399804497	0	1
0.574780058651026	0	2
2.44770283479961	0.164222873900293	1
0.868035190615836	1.32160312805474	3
0.879765395894428	0.95405669599218	2
0.49266862170088	0.44574780058651	2
0	0.469208211143695	2
2.35777126099707	0.926686217008798	1
0.934506353861193	0.617790811339198	2
0	0	2
0.289345063538612	0	2
0.9227761485826	0	2
0.21505376344086	0.9227761485826	2
0.391006842619746	0.746823069403715	2
0.64516129032258	0	2
2.55718475073314	2.86608015640274	4
2.81133919843597	1.26295210166178	1
0	0.144672531769306	2
0.129032258064516	0.359726295210166	2
0.617790811339198	0	2
0.617790811339198	0	2
2.29130009775171	0.828934506353861	1
0	0.559139784946237	2
0.121212121212121	0	2
0	0	2
0.148582600195503	0	2
0.504398826979472	0	2
0.473118279569892	0.809384164222874	2
0	1.25122189638319	2
0.336265884652981	0.586510263929619	2
0	0.273704789833822	2
0.285434995112414	1.98631476050831	3
0	0.778103616813294	2
0	0.813294232649071	2
0	0	2
0.336265884652981	0	2
0	0.617790811339198	2
2.34995112414467	0.574780058651026	1
0.0469208211143695	0.422287390029326	2
0.27761485826002	0.883675464320626	2
0	0	2
2.59237536656891	0.852394916911046	1
0	0.093841642228739	2
0.625610948191593	0	2
0.828934506353861	0.394916911045943	2
0.0234604105571848	0	2
0.66080156402737	0.222873900293255	2
0.218963831867058	1.0752688172043	2
0.848484848484849	0	2
0.0625610948191593	0	2
0.414467253176931	0	2
0	0.086021505376344	2
2.45161290322581	0	1
0.140762463343108	0	2
2.55327468230694	0.797653958944281	1
0.782013685239492	0.269794721407625	2
0.0547409579667644	0	2
0.129032258064516	0.688172043010753	2
0	0.258064516129032	2
0	0.731182795698925	2
0.0782013685239492	0	2
0	0.742913000977517	2
0.265884652981427	0.304985337243402	2
0.0195503421309873	0	2
0	0	2
0.602150537634409	0.351906158357771	2
0.465298142717498	0	2
0.156402737047898	1.91202346041056	3
0.930596285434995	0	2
0.129032258064516	0	2
0.832844574780059	0.050830889540567	2
0	0.0078201368523949	2
2.40860215053763	1.14565004887586	1
0.89149560117302	0	2
0.0312805474095797	0	2
0.289345063538612	0.500488758553275	2
0.609970674486804	0.563049853372434	2
0.238514173998045	0	2
0.207233626588465	0.391006842619746	2
2.06060606060606	3.72238514173998	3
0.914956011730205	0	2
2.48289345063539	3.26490713587488	4
0.465298142717498	0.0156402737047898	2
0.359726295210166	0	2
0.809384164222874	0.410557184750733	2
2.1466275659824	0.218963831867058	1
0	0.742913000977517	2
0	0.23069403714565	2
0	0.0586510263929619	2
2.58846529814272	2.62756598240469	4
0.668621700879765	0.383186705767351	2
0.473118279569892	0	2
0.496578690127077	0.590420332355816	2
0	0	2
0.523949169110459	0.414467253176931	2
4	3.96089931573803	3
0.0234604105571848	0	2
2.44770283479961	0.434017595307918	1
0.516129032258065	0.23069403714565	2
2.36950146627566	0.625610948191593	1
0	0.774193548387097	2
0	0	2
1.13782991202346	0.715542521994135	2
0	0	2
2.29912023460411	1.28641251221896	1
2.24828934506354	1.3802541544477	1
0	0.0117302052785923	2
2.33822091886608	0	1
0	0.336265884652981	2
0.19941348973607	0.73900293255132	2
0	0.473118279569892	2
0.742913000977517	0	2
0.258064516129032	0.434017595307918	2
2.80742913000978	3.98044965786901	3
0	0	2
0.523949169110459	0	2
0.160312805474096	0.191593352883675	2
2.54154447702835	0.551319648093842	1
2.31867057673509	0.961876832844575	1
2.51026392961877	2.11534701857282	4
0.852394916911046	0.0391006842619746	2
0	0	2
0.0117302052785923	0	2
0	0	2
0	0.465298142717498	2
0	0.391006842619746	2
0.0312805474095797	0.703812316715543	2
0.633431085043988	0	2
0	0.684261974584555	2
0.680351906158358	0.312805474095797	2
0.265884652981427	0.109481915933529	2
0.625610948191593	0.87585532746823	2
0.480938416422287	0	2
0.281524926686217	0.750733137829912	2
0.21505376344086	0.109481915933529	2
0.340175953079179	0.602150537634409	2
0.316715542521994	0	2
0	0	2
0.602150537634409	0.0117302052785923	2
0.297165200391007	0	2
0.43010752688172	0	2
1.02052785923754	0	2
2.23655913978495	0	1
2.38123167155425	0	1
2.56891495601173	3.0772238514174	4
0	0	2
0.093841642228739	0.672531769305963	2
2.20918866080156	0.512218963831867	1
0.117302052785924	0	2
2.33822091886608	3.13978494623656	4
0.465298142717498	0.269794721407625	2
2.36950146627566	0.735092864125122	1
2.43206256109482	0.574780058651026	1
0	0.0703812316715542	2
0.633431085043988	0.527859237536657	2
1.48973607038123	1.30596285434995	3
0	0.125122189638319	2
0.242424242424242	0.0391006842619746	2
2.40078201368524	0.109481915933529	1
0	0.43010752688172	2
1.18475073313783	1.02443792766373	3
2.38905180840665	2.76050830889541	4
2.58455522971652	3.13587487781036	4
2.19354838709677	0.735092864125122	1
0.320625610948192	0	2
0.160312805474096	0	2
0.72336265884653	0	2
0	0.590420332355816	2
0.250244379276637	0.895405669599218	2
2.37732160312805	0.574780058651026	1
2.4633431085044	2.7683284457478	4
2.68230694037146	2.97165200391007	4
0.168132942326491	0	2
0	0.344086021505376	2
2.44379276637341	0.98533724340176	1
0	0	2
0.73900293255132	0	2
0.527859237536657	0.21505376344086	2
2.25219941348974	0.789833822091887	1
0.175953079178886	0.637341153470186	2
2.35386119257087	0.715542521994135	1
0	0	2
2.32258064516129	3.15151515151515	4
0.285434995112414	1.01661779081134	2
2.11534701857282	3.66373411534702	3
0.168132942326491	0	2
2.53372434017595	3.10850439882698	4
0.0117302052785923	0	2
0.613880742913001	0	2
0.363636363636364	0	2
0.4613880742913	1.18475073313783	3
0.132942326490714	0	2
0	0.383186705767351	2
0	0.136852394916911	2
4	3.45259042033236	3
2.57282502443793	2.9208211143695	4
0.66080156402737	1.18866080156403	3
0.782013685239492	0.336265884652981	2
0.809384164222874	0.289345063538612	2
0.140762463343108	0.895405669599218	2
0.422287390029326	0	2
0	0.265884652981427	2
2.26001955034213	0	1
0.211143695014663	0.265884652981427	2
2.22873900293255	1.66959921798631	4
0.441837732160313	0.496578690127077	2
0.574780058651026	0.457478005865103	2
0.422287390029326	0.00391006842619744	2
1.15347018572825	1.02052785923754	3
2.41251221896383	1.37243401759531	1
0.625610948191593	1.43499511241447	3
0.473118279569892	0	2
0.265884652981427	0	2
0	0.520039100684262	2
0.164222873900293	0	2
0.0391006842619746	0.699902248289345	2
0.156402737047898	0	2
0.391006842619746	0.656891495601173	2
0.602150537634409	0	2
0.0899315738025415	0.250244379276637	2
2.43206256109482	0.87585532746823	1
0.426197458455523	0	2
2.66275659824047	3.15151515151515	4
0.160312805474096	0.805474095796676	2
2.26001955034213	3.10459433040078	4
2.37341153470186	0.7702834799609	1
0	0.24633431085044	2
0.496578690127077	0.840664711632454	2
2.33822091886608	0.762463343108504	1
0.520039100684262	0	2
0.156402737047898	0.0351906158357772	2
0.652981427174976	0.273704789833822	2
2.34604105571848	0.0977517106549365	1
0.637341153470186	0	2
0	0.0351906158357772	2
0.410557184750733	0.0312805474095797	2
2.47116324535679	3.0733137829912	4
0.950146627565982	0.0312805474095797	2
1.47018572825024	1.41544477028348	3
2.12316715542522	0.914956011730205	1
0.289345063538612	0.598240469208211	2
0.269794721407625	0	2
0	0.340175953079179	2
0.238514173998045	0	2
0.426197458455523	0.731182795698925	2
1.09481915933529	1.02834799608993	3
0	0.0078201368523949	2
0	0	2
0.633431085043988	0	2
2.44379276637341	0.148582600195503	1
2.44770283479961	2.9169110459433	4
2.3108504398827	0.911045943304008	1
0.879765395894428	1.32551319648094	3
0.0430107526881721	0.4613880742913	2
0.621700879765396	0	2
2.26001955034213	0.911045943304008	1
0	0.719452590420332	2
0.484848484848485	0	2
0	0	2
0	0.211143695014663	2
2.4594330400782	0.840664711632454	1
0.234604105571848	0	2
0.828934506353861	0	2
0	0.422287390029326	2
0	0.222873900293255	2
0.543499511241447	0	2
2.4672531769306	3.10850439882698	4
2.52199413489736	0.89149560117302	1
0.4613880742913	0.957966764418377	2
0.649071358748778	0	2
0.664711632453568	0	2
0	0	2
0.0156402737047898	0	2
1.89247311827957	1.27077223851417	3
0.324535679374389	0	2
0	0.367546432062561	2
0	0	2
0.4613880742913	0	2
0.500488758553275	0	2
0	0.301075268817204	2
0.422287390029326	0.242424242424242	2
0.105571847507331	0.778103616813294	2
0.578690127077224	0	2
2.36950146627566	0	1
0.160312805474096	0.093841642228739	2
0	0.465298142717498	2
