"Event"	"Time"	"FSC-A"	"SSC-A"	"ERK"	"CD45"	"PrimaryGates"
112	96.099998474121	1.11942268577789	0.655880480013164	0.665009743842216	2.03458214374349	3
115	97.400001525879	2.34886691278688	1.19711232457734	0.781591427224015	2.13183169858534	1
116	98.900001525879	2.09080410587578	2.21204697420094	0.647077398780601	1.16110578405396	2
125	103.5	1.43376995921063	1.01031068466	0.688571220398273	1.22807148810855	3
134	108.800003051758	1.29187150912266	1.32454870241414	0.599530599104428	0.835437420484376	2
140	113.5	1.75203943997906	1.45295041049789	0.70026868689818	1.0830149841429	2
142	114	0.771919800775313	0.240408224722617	0.556308558139242	1.9137666377167	1
151	121.5	0.687315180534258	0.283090247500254	0.619241653737383	1.89385199381646	3
153	123	1.85235188860688	1.80917604714937	0.677799173545497	0.99730728332814	2
158	124	1.52417125481484	1.19784063616313	0.64079309223858	1.14887077366374	2
