"Event"	"Time"	"FSC-A"	"SSC-A"	"ERK"	"CD45"	"PrimaryGates"
165	129.399993896484	2.01760047662906	1.84028977558688	0.698413374597506	1.11404078734641	2
166	130.399993896484	2.20949654254172	2.19290773966312	0.766477493028828	1.94638082188327	2
167	133.199996948242	1.61010254476687	1.05546555594211	0.90012631470526	1.94189540716955	1
169	135.699996948242	1.98732896463375	1.93850937894094	0.703283386671795	1.21463776152533	2
173	137.300003051758	1.69076577981375	1.42640968488258	0.683323230769949	1.07844481858642	2
174	138.800003051758	1.89835997342484	1.90018012653844	0.624033339725692	1.20604773014164	2
176	139.800003051758	2.08988124408	1.50557472237937	0.664868059193867	0.923054573215719	2
177	141.600006103516	0.770064510606328	0.219084144834727	0.575371122045576	1.90859570996038	1
178	141.899993896484	2.52238281184687	1.76017639522359	0.770432965297818	1.91956946764294	3
179	142.100006103516	0.929949020320078	0.349603061672109	0.585368996098725	1.88412138560634	3
